{
    "material": {
        "albedo": "Data/Material/grass/grass1-albedo3.dds",
        "roughness": "Data/Material/grass/grass1-rough.dds",
        "heightmap": "Data/Material/grass/grass1-height.dds"
    }
}