{
"material":{
"albedo":"Data/model/sponza_pbr/VaseHanging_diffuse.dds",
"normal":"Data/model/sponza_pbr/VaseHanging_normal.dds",
"metalness":"Data/model/sponza_pbr/Dielectric_metallic.dds",
"roughness":"Data/model/sponza_pbr/VaseHanging_roughness.dds"}
}
{
"material":{
"albedo":"Data/model/sponza_pbr/Sponza_FlagPole_diffuse.dds",
"normal":"Data/model/sponza_pbr/Sponza_FlagPole_normal.dds",
"metalness":"Data/model/sponza_pbr/Dielectric_metallic.dds",
"roughness":"Data/model/sponza_pbr/Sponza_FlagPole_roughness.dds"}
}
{
"material":{
"albedo":"Data/model/sponza_pbr/ChainTexture_Albedo.dds",
"normal":"Data/model/sponza_pbr/ChainTexture_Normal.dds",
"metalness":"Data/model/sponza_pbr/ChainTexture_Metallic.dds",
"roughness":"Data/model/sponza_pbr/ChainTexture_Roughness.dds"}
}
{
"material":{
"albedo":"Data/model/sponza_pbr/VaseHanging_diffuse.dds",
"normal":"Data/model/sponza_pbr/VaseHanging_normal.dds",
"metalness":"Data/model/sponza_pbr/Dielectric_metallic.dds",
"roughness":"Data/model/sponza_pbr/VaseHanging_roughness.dds"}
}
{
"material":{
"albedo":"Data/model/sponza_pbr/Sponza_FlagPole_diffuse.dds",
"normal":"Data/model/sponza_pbr/Sponza_FlagPole_normal.dds",
"metalness":"Data/model/sponza_pbr/Dielectric_metallic.dds",
"roughness":"Data/model/sponza_pbr/Sponza_FlagPole_roughness.dds"}
}
{
"material":{
"albedo":"Data/model/sponza_pbr/ChainTexture_Albedo.dds",
"normal":"Data/model/sponza_pbr/ChainTexture_Normal.dds",
"metalness":"Data/model/sponza_pbr/ChainTexture_Metallic.dds",
"roughness":"Data/model/sponza_pbr/ChainTexture_Roughness.dds"}
}
{
"material":{
"albedo":"Data/model/sponza_pbr/VaseHanging_diffuse.dds",
"normal":"Data/model/sponza_pbr/VaseHanging_normal.dds",
"metalness":"Data/model/sponza_pbr/Dielectric_metallic.dds",
"roughness":"Data/model/sponza_pbr/VaseHanging_roughness.dds"}
}
{
"material":{
"albedo":"Data/model/sponza_pbr/Sponza_FlagPole_diffuse.dds",
"normal":"Data/model/sponza_pbr/Sponza_FlagPole_normal.dds",
"metalness":"Data/model/sponza_pbr/Dielectric_metallic.dds",
"roughness":"Data/model/sponza_pbr/Sponza_FlagPole_roughness.dds"}
}
{
"material":{
"albedo":"Data/model/sponza_pbr/ChainTexture_Albedo.dds",
"normal":"Data/model/sponza_pbr/ChainTexture_Normal.dds",
"metalness":"Data/model/sponza_pbr/ChainTexture_Metallic.dds",
"roughness":"Data/model/sponza_pbr/ChainTexture_Roughness.dds"}
}
{
"material":{
"albedo":"Data/model/sponza_pbr/VaseHanging_diffuse.dds",
"normal":"Data/model/sponza_pbr/VaseHanging_normal.dds",
"metalness":"Data/model/sponza_pbr/Dielectric_metallic.dds",
"roughness":"Data/model/sponza_pbr/VaseHanging_roughness.dds"}
}
{
"material":{
"albedo":"Data/model/sponza_pbr/Sponza_FlagPole_diffuse.dds",
"normal":"Data/model/sponza_pbr/Sponza_FlagPole_normal.dds",
"metalness":"Data/model/sponza_pbr/Dielectric_metallic.dds",
"roughness":"Data/model/sponza_pbr/Sponza_FlagPole_roughness.dds"}
}
{
"material":{
"albedo":"Data/model/sponza_pbr/ChainTexture_Albedo.dds",
"normal":"Data/model/sponza_pbr/ChainTexture_Normal.dds",
"metalness":"Data/model/sponza_pbr/ChainTexture_Metallic.dds",
"roughness":"Data/model/sponza_pbr/ChainTexture_Roughness.dds"}
}
{
"material":{
"albedo":"Data/model/sponza_pbr/VaseHanging_diffuse.dds",
"normal":"Data/model/sponza_pbr/VaseHanging_normal.dds",
"metalness":"Data/model/sponza_pbr/Dielectric_metallic.dds",
"roughness":"Data/model/sponza_pbr/VaseHanging_roughness.dds"}
}
{
"material":{
"albedo":"Data/model/sponza_pbr/Sponza_FlagPole_diffuse.dds",
"normal":"Data/model/sponza_pbr/Sponza_FlagPole_normal.dds",
"metalness":"Data/model/sponza_pbr/Dielectric_metallic.dds",
"roughness":"Data/model/sponza_pbr/Sponza_FlagPole_roughness.dds"}
}
{
"material":{
"albedo":"Data/model/sponza_pbr/ChainTexture_Albedo.dds",
"normal":"Data/model/sponza_pbr/ChainTexture_Normal.dds",
"metalness":"Data/model/sponza_pbr/ChainTexture_Metallic.dds",
"roughness":"Data/model/sponza_pbr/ChainTexture_Roughness.dds"}
}
{
"material":{
"albedo":"Data/model/sponza_pbr/VaseHanging_diffuse.dds",
"normal":"Data/model/sponza_pbr/VaseHanging_normal.dds",
"metalness":"Data/model/sponza_pbr/Dielectric_metallic.dds",
"roughness":"Data/model/sponza_pbr/VaseHanging_roughness.dds"}
}
{
"material":{
"albedo":"Data/model/sponza_pbr/Sponza_FlagPole_diffuse.dds",
"normal":"Data/model/sponza_pbr/Sponza_FlagPole_normal.dds",
"metalness":"Data/model/sponza_pbr/Dielectric_metallic.dds",
"roughness":"Data/model/sponza_pbr/Sponza_FlagPole_roughness.dds"}
}
{
"material":{
"albedo":"Data/model/sponza_pbr/ChainTexture_Albedo.dds",
"normal":"Data/model/sponza_pbr/ChainTexture_Normal.dds",
"metalness":"Data/model/sponza_pbr/ChainTexture_Metallic.dds",
"roughness":"Data/model/sponza_pbr/ChainTexture_Roughness.dds"}
}
{
"material":{
"albedo":"Data/model/sponza_pbr/VaseHanging_diffuse.dds",
"normal":"Data/model/sponza_pbr/VaseHanging_normal.dds",
"metalness":"Data/model/sponza_pbr/Dielectric_metallic.dds",
"roughness":"Data/model/sponza_pbr/VaseHanging_roughness.dds"}
}
{
"material":{
"albedo":"Data/model/sponza_pbr/Sponza_FlagPole_diffuse.dds",
"normal":"Data/model/sponza_pbr/Sponza_FlagPole_normal.dds",
"metalness":"Data/model/sponza_pbr/Dielectric_metallic.dds",
"roughness":"Data/model/sponza_pbr/Sponza_FlagPole_roughness.dds"}
}
{
"material":{
"albedo":"Data/model/sponza_pbr/ChainTexture_Albedo.dds",
"normal":"Data/model/sponza_pbr/ChainTexture_Normal.dds",
"metalness":"Data/model/sponza_pbr/ChainTexture_Metallic.dds",
"roughness":"Data/model/sponza_pbr/ChainTexture_Roughness.dds"}
}
{
"material":{
"albedo":"Data/model/sponza_pbr/VaseHanging_diffuse.dds",
"normal":"Data/model/sponza_pbr/VaseHanging_normal.dds",
"metalness":"Data/model/sponza_pbr/Dielectric_metallic.dds",
"roughness":"Data/model/sponza_pbr/VaseHanging_roughness.dds"}
}
{
"material":{
"albedo":"Data/model/sponza_pbr/Sponza_FlagPole_diffuse.dds",
"normal":"Data/model/sponza_pbr/Sponza_FlagPole_normal.dds",
"metalness":"Data/model/sponza_pbr/Dielectric_metallic.dds",
"roughness":"Data/model/sponza_pbr/Sponza_FlagPole_roughness.dds"}
}
{
"material":{
"albedo":"Data/model/sponza_pbr/ChainTexture_Albedo.dds",
"normal":"Data/model/sponza_pbr/ChainTexture_Normal.dds",
"metalness":"Data/model/sponza_pbr/ChainTexture_Metallic.dds",
"roughness":"Data/model/sponza_pbr/ChainTexture_Roughness.dds"}
}
