{
"material":{
"albedo":"Data/Game_Models/wifi_hotspot_albedo.dds",
"normal":"Data/Game_Models/wifi_hotspot_normal.dds",
"metalness":"Data/Game_Models/wifi_hotspot_metallic.dds",
"roughness":"Data/Game_Models/wifi_hotspot_roughness.dds"}
}
{
"material":{
"albedo":"Data/Game_Models/wifi_hotspot_albedo.dds",
"normal":"Data/Game_Models/wifi_hotspot_normal.dds",
"metalness":"Data/Game_Models/wifi_hotspot_metallic.dds",
"roughness":"Data/Game_Models/wifi_hotspot_roughness.dds"}
}
{
"material":{
"albedo":"Data/Game_Models/wifi_hotspot_albedo.dds",
"normal":"Data/Game_Models/wifi_hotspot_normal.dds",
"metalness":"Data/Game_Models/wifi_hotspot_metallic.dds",
"roughness":"Data/Game_Models/wifi_hotspot_roughness.dds"}
}
{
"material":{
"albedo":"Data/Game_Models/wifi_hotspot_albedo.dds",
"normal":"Data/Game_Models/wifi_hotspot_normal.dds",
"metalness":"Data/Game_Models/wifi_hotspot_metallic.dds",
"roughness":"Data/Game_Models/wifi_hotspot_roughness.dds"}
}
{
"material":{
"albedo":"Data/Game_Models/wifi_hotspot_albedo.dds",
"normal":"Data/Game_Models/wifi_hotspot_normal.dds",
"metalness":"Data/Game_Models/wifi_hotspot_metallic.dds",
"roughness":"Data/Game_Models/wifi_hotspot_roughness.dds"}
}
{
"material":{
"albedo":"Data/Game_Models/wifi_hotspot_albedo.dds",
"normal":"Data/Game_Models/wifi_hotspot_normal.dds",
"metalness":"Data/Game_Models/wifi_hotspot_metallic.dds",
"roughness":"Data/Game_Models/wifi_hotspot_roughness.dds"}
}
{
"material":{
"albedo":"Data/Game_Models/wifi_hotspot_albedo.dds",
"normal":"Data/Game_Models/wifi_hotspot_normal.dds",
"metalness":"Data/Game_Models/wifi_hotspot_metallic.dds",
"roughness":"Data/Game_Models/wifi_hotspot_roughness.dds"}
}
{
"material":{
"albedo":"Data/Game_Models/wifi_hotspot_albedo.dds",
"normal":"Data/Game_Models/wifi_hotspot_normal.dds",
"metalness":"Data/Game_Models/wifi_hotspot_metallic.dds",
"roughness":"Data/Game_Models/wifi_hotspot_roughness.dds"}
}
{
"material":{
"albedo":"Data/Game_Models/wifi_hotspot_albedo.dds",
"normal":"Data/Game_Models/wifi_hotspot_normal.dds",
"metalness":"Data/Game_Models/wifi_hotspot_metallic.dds",
"roughness":"Data/Game_Models/wifi_hotspot_roughness.dds"}
}
{
"material":{
"albedo":"Data/Game_Models/wifi_hotspot_albedo.dds",
"normal":"Data/Game_Models/wifi_hotspot_normal.dds",
"metalness":"Data/Game_Models/wifi_hotspot_metallic.dds",
"roughness":"Data/Game_Models/wifi_hotspot_roughness.dds"}
}
{
"material":{
"albedo":"Data/Game_Models/wifi_hotspot_albedo.dds",
"normal":"Data/Game_Models/wifi_hotspot_normal.dds",
"metalness":"Data/Game_Models/wifi_hotspot_metallic.dds",
"roughness":"Data/Game_Models/wifi_hotspot_roughness.dds"}
}
{
"material":{
"albedo":"Data/Game_Models/wifi_hotspot_albedo.dds",
"normal":"Data/Game_Models/wifi_hotspot_normal.dds",
"metalness":"Data/Game_Models/wifi_hotspot_metallic.dds",
"roughness":"Data/Game_Models/wifi_hotspot_roughness.dds"}
}
