{
"material":{
"albedo":"Data/Game_Models/T_rail_albedo.dds",
"normal":"Data/Game_Models/T_rail_normal.dds",
"metalness":"Data/Game_Models/T_empty_metalness_white.dds",
"roughness":"Data/Game_Models/T_rail_roughness.dds"}
}
{
"material":{
"albedo":"Data/Game_Models/T_rail_albedo.dds",
"normal":"Data/Game_Models/T_rail_normal.dds",
"metalness":"Data/Game_Models/T_empty_metalness_white.dds",
"roughness":"Data/Game_Models/T_rail_roughness.dds"}
}
{
"material":{
"albedo":"Data/Game_Models/T_rail_albedo.dds",
"normal":"Data/Game_Models/T_rail_normal.dds",
"metalness":"Data/Game_Models/T_empty_metalness_white.dds",
"roughness":"Data/Game_Models/T_rail_roughness.dds"}
}
{
"material":{
"albedo":"Data/Game_Models/T_rail_albedo.dds",
"normal":"Data/Game_Models/T_rail_normal.dds",
"metalness":"Data/Game_Models/T_empty_metalness_white.dds",
"roughness":"Data/Game_Models/T_rail_roughness.dds"}
}
{
"material":{
"albedo":"Data/Game_Models/T_rail_albedo.dds",
"normal":"Data/Game_Models/T_rail_normal.dds",
"metalness":"Data/Game_Models/T_empty_metalness_white.dds",
"roughness":"Data/Game_Models/T_rail_roughness.dds"}
}
{
"material":{
"albedo":"Data/Game_Models/T_rail_albedo.dds",
"normal":"Data/Game_Models/T_rail_normal.dds",
"metalness":"Data/Game_Models/T_empty_metalness_white.dds",
"roughness":"Data/Game_Models/T_rail_roughness.dds"}
}
{
"material":{
"albedo":"Data/Game_Models/T_rail_albedo.dds",
"normal":"Data/Game_Models/T_rail_normal.dds",
"metalness":"Data/Game_Models/T_empty_metalness_white.dds",
"roughness":"Data/Game_Models/T_rail_roughness.dds"}
}
{
"material":{
"albedo":"Data/Game_Models/T_rail_albedo.dds",
"normal":"Data/Game_Models/T_rail_normal.dds",
"metalness":"Data/Game_Models/T_empty_metalness_white.dds",
"roughness":"Data/Game_Models/T_rail_roughness.dds"}
}
{
"material":{
"albedo":"Data/Game_Models/T_rail_albedo.dds",
"normal":"Data/Game_Models/T_rail_normal.dds",
"metalness":"Data/Game_Models/T_empty_metalness_white.dds",
"roughness":"Data/Game_Models/T_rail_roughness.dds"}
}
{
"material":{
"albedo":"Data/Game_Models/T_rail_albedo.dds",
"normal":"Data/Game_Models/T_rail_normal.dds",
"metalness":"Data/Game_Models/T_empty_metalness_white.dds",
"roughness":"Data/Game_Models/T_rail_roughness.dds"}
}
{
"material":{
"albedo":"Data/Game_Models/T_rail_albedo.dds",
"normal":"Data/Game_Models/T_rail_normal.dds",
"metalness":"Data/Game_Models/T_empty_metalness_white.dds",
"roughness":"Data/Game_Models/T_rail_roughness.dds"}
}
{
"material":{
"albedo":"Data/Game_Models/T_rail_albedo.dds",
"normal":"Data/Game_Models/T_rail_normal.dds",
"metalness":"Data/Game_Models/T_empty_metalness_white.dds",
"roughness":"Data/Game_Models/T_rail_roughness.dds"}
}
